Estabilidad de implantes dentales (spanish)
…
print(tabla1)

# A tibble: 45 × 10
   Semana Medicion       n media    sd ci_inf ci_sup mediana minimo maximo
    <dbl> <fct>      <int> <dbl> <dbl>  <dbl>  <dbl>   <dbl>  <dbl>  <dbl>
 1      0 Distal         6  57.2  6.15   50.7   63.6    58.5   46       62
 2      0 Mesial         6  57.5  5.43   51.8   63.2    58.5   48       62
 3      0 Palatino       6  54.2  6.88   46.9   61.4    53     48       62
 4      0 Promedio       6  55.7  6.15   49.2   62.1    56     47       62
 5      0 Vestibular     6  53.8  7.28   46.2   61.5    53     46       62
 6      1 Distal         6  56    5.14   50.6   61.4    56     47       61
 7      1 Mesial         6  56.3  4.76   51.3   61.3    56     48       61
 8      1 Palatino       6  53    5.73   47.0   59.0    52     48       61
 9      1 Promedio       6  54.5  5.05   49.2   59.8    54     47.5     61
10      1 Vestibular     6  52.8  5.91   46.6   59.0    52     47       61
# ℹ 35 more rows
…
